{
"configs" : [
		{
		"name" : "ogre",
		"path" : "assets/json/actors/ogre.json"
		},
		{
		"name" : "dwarf",
		"path" : "assets/json/actors/dwarf.json"
		},
		{
		"name" : "dirt",
		"path" : "assets/json/tiles/dirt.json"
		},
		{
		"name" : "tree",
		"path" : "assets/json/tiles/tree.json"
		},
		{
		"name" : "mountain",
		"path" : "assets/json/tiles/mountain.json"
		},
		{
		"name" : "sea",
		"path" : "assets/json/tiles/sea.json"
		},
		{
		"name" : "grass",
		"path" : "assets/json/tiles/grass.json"
		},
		{
		"name" : "wall",
		"path" : "assets/json/tiles/wall.json"
		},
		{
		"name" : "smith",
		"path" : "assets/json/tiles/smith.json"
		},
		{
		"name" : "potion",
		"path" : "assets/json/tiles/potion.json"
		},
		{
		"name" : "great_hall",
		"path" : "assets/json/buildings/great_hall.json"
		},
		{
		"name" : "apothecary",
		"path" : "assets/json/buildings/apothecary.json"
		},
		{
		"name" : "black_smith",
		"path" : "assets/json/buildings/black_smith.json"
		},
		{
		"name" : "Axe",
		"path" : "assets/json/items/weapon/Axe.json"
		},
		{
		"name" : "War_Axe",
		"path" : "assets/json/items/weapon/War_Axe.json"
		},		
		{
		"name" : "Gorehowl",
		"path" : "assets/json/items/weapon/Gorehowl.json"
		},		
		{
		"name" : "Shield",
		"path" : "assets/json/items/armor/Shield.json"
		},
		{
		"name" : "Golden_Shield",
		"path" : "assets/json/items/armor/Golden_Shield.json"
		},
		{
		"name" : "Truesilver_Shield",
		"path" : "assets/json/items/armor/Truesilver_Shield.json"
		},
		{
		"name" : "Lesser_Potion",
		"path" : "assets/json/items/potion/Lesser_Potion.json"
		},
		{
		"name" : "Moderate_Potion",
		"path" : "assets/json/items/potion/Moderate_Potion.json"
		},
		{
		"name" : "Severe_Potion",
		"path" : "assets/json/items/potion/Severe_Potion.json"
		},
		{
		"name" : "Ale",
		"path" : "assets/json/items/drink/Ale.json"
		},
		{
		"name" : "Super_Ale",
		"path" : "assets/json/items/drink/Super_Ale.json"
		},
		{
		"name" : "Master_Ale",
		"path" : "assets/json/items/drink/Master_Ale.json"
		}
		],
"windows" :	[
		{
		"name" : "main",
		"height" : 20,
		"width" : 40,
		"x" : 5,
		"y" : 0
		},
		{
		"name" : "help",
		"height" : 4,
		"width" : 61,
		"x" : 5,
		"y" : 20
		},
		{
		"name" : "info",
		"height" : 20,
		"width" : 20,
		"x" : 46,
		"y" : 0
		},
		{
		"name" : "menu",
		"height" : 1,
		"width" : 1,
		"x" : 47,
		"y" : 5
		},
		{
		"name" : "log",
		"height" : 24,
		"width" : 35,
		"x" : 66,
		"y" : 0
		}
		],
"color_pairs" :	[
		{
		"pair_index" : 1,
		"foreground" : 1,
		"background" : 0
		},
		{
		"pair_index" : 2,
		"foreground" : 2,
		"background" : 0
		},
		{
		"pair_index" : 3,
		"foreground" : 3,
		"background" : 0
		},
		{
		"pair_index" : 4,
		"foreground" : 4,
		"background" : 0
		},
		{
		"pair_index" : 5,
		"foreground" : 5,
		"background" : 0
		},
		{
		"pair_index" : 6,
		"foreground" : 6,
		"background" : 0
		},
		{
		"pair_index" : 7,
		"foreground" : 7,
		"background" : 0
		}
		],
"attributes" : 	[
		{
		"name" : "normal",
		"attributes" : 	[
				"normal"
				]
		},
		{
		"name" : "bold",
		"attributes" : 	[
				"bold"
				]
		},
		{
		"name" : "dim",
		"attributes" : 	[
				"dim"
				]
		},
		{
		"name" : "standout",
		"attributes" : 	[
				"standout"
				]
		},
		{
		"name" : "standout&bold",
		"attributes" : 	[
				"standout",
				"bold"
				]
		}
		]
}
